…
    #plot median wind speed by direction by airport
    nycflights13::weather %>% 
      filter(wind_speed < 250) %>%
      group_by(origin, wind_dir)%>%
      summarise(med_windspeed = median(wind_speed))%>%
      #table
      print() %>%
      #plot
      ggplot(aes(x=wind_dir, y=med_windspeed)) +
        geom_point() +
        facet_wrap(~origin)

    ## Source: local data frame [114 x 3]
    ## Groups: origin [?]
    ## 
    ##    origin wind_dir med_windspeed
    ##     <chr>    <dbl>         <dbl>
    ## 1     EWR        0       0.00000
    ## 2     EWR       10       9.20624
    ## 3     EWR       20       9.20624
    ## 4     EWR       30       9.20624
    ## 5     EWR       40      10.35702
    ## 6     EWR       50       8.05546
    ## 7     EWR       60       8.05546
    ## 8     EWR       70       6.90468
    ## 9     EWR       80       6.90468
    ## 10    EWR       90       6.32929
    ## # ... with 104 more rows
…
